A First Introduction to Networks with R
…
We see each row is a node in our network. The variable name serves as a unique identifer of each node for us. There is an additional attribute, sex in the table telling us if the node is a male or female.

Turning to the edgelist table:

edgelist %>%
    head(21)

## # A tibble: 21 x 3
##    friend_1  friend_2 friendship_strength
##    <chr>     <chr>    <chr>              
##  1 Shami     Arlesha  weak               
##  2 Hiroko    Darreus  strong             
##  3 Shami     Bisrat   weak               
##  4 Arlesha   Hiroko   strong             
##  5 Shami     Darreus  strong             
##  6 Janais    Darlise  strong             
##  7 Yissachar Darreus  strong             
##  8 Dreyden   Hiroko   strong             
##  9 Yissachar Darlise  strong             
## 10 Endya     Arlesha  strong             
## #  with 11 more rows
…
